module gitlab.com/tiro-is/grpc-websocket-proxy

go 1.17

require (
	github.com/gorilla/websocket v1.4.2
	github.com/sirupsen/logrus v1.8.1
	golang.org/x/net v0.0.0-20211123203042-d83791d6bcd9
	golang.org/x/sys v0.0.0-20210510120138-977fb7262007 // indirect
)

require github.com/stretchr/testify v1.7.0 // indirect
